Google Maps API key 
 AIzaSyC-S4zhhDSMxZSD2tS4wT7n329sL7hF5lM  

Weather API: 
7ebd0192948eda99890eaf92237ee99c
7ebd0192948eda99890eaf92237ee99c

OAuth Client ID:
 1087892566816-0fd89n55q8p20ju4tkou1epa31ltpgul.apps.googleusercontent.com 

client secret
 KYTa0Z4K0gi1LiGXMQ6OoR_- 